<svg xmlns="http://www.w3.org/2000/svg" width="11.873" height="6.596" viewBox="0 0 11.873 6.596">
  <path id="Path_1" data-name="Path 1" d="M70.54,161.944l4.524,4.182,4.524-4.182" transform="translate(-69.126 -160.531)" fill="none" stroke="#005eb8" stroke-linecap="round" stroke-linejoin="round" stroke-width="2"/>
</svg>
